-------------------------------------------------------------------------------
Test set: com.metadata.services.FileServiceTest
-------------------------------------------------------------------------------
Tests run: 1, Failures: 0, Errors: 0, Skipped: 0, Time elapsed: 0.016 s - in com.metadata.services.FileServiceTest
